%YAML 1.1
%TAG !u! tag:unity3d.com,2011:
--- !u!21 &2100000
Material:
  serializedVersion: 6
  m_ObjectHideFlags: 0
  m_CorrespondingSourceObject: {fileID: 0}
  m_PrefabInstance: {fileID: 0}
  m_PrefabAsset: {fileID: 0}
  m_Name: prototype_512x512_blue1
  m_Shader: {fileID: 4800000, guid: 630b07f1142b0473fbb4a366f4ac637c, type: 3}
  m_ShaderKeywords: 
  m_LightmapFlags: 4
  m_EnableInstancingVariants: 0
  m_DoubleSidedGI: 0
  m_CustomRenderQueue: -1
  stringTagMap: {}
  disabledShaderPasses: []
  m_SavedProperties:
    serializedVersion: 3
    m_TexEnvs:
    - _MainTex:
        m_Texture: {fileID: 2800000, guid: 5fc700b669bd6e144b9f52fe0e65c6e5, type: 3}
        m_Scale: {x: 250, y: 50}
        m_Offset: {x: 0, y: 0}
    m_Floats:
    - _RampSmooth: 0.1
    - _RampThreshold: 0.5
    - __dummy__: 0
    m_Colors:
    - _Color: {r: 1, g: 1, b: 1, a: 1}
    - _HColor: {r: 0.785, g: 0.785, b: 0.785, a: 1}
    - _SColor: {r: 0.195, g: 0.195, b: 0.195, a: 1}
  m_BuildTextureStacks: []
